3 Vectors | R avanzado
…
as_tibble(df3, rownames = "name")
#> # A tibble: 3 x 3
#>   name    age hair 
#>   <chr> <dbl> <chr>
#> 1 Bob      35 blond
#> 2 Susan    27 brown
#> 3 Sam      18 black

3.6.3 Printing

One of the most obvious differences between tibbles and data frames is how they print. I assume that you’re already familiar with how data frames are printed, so here I’ll highlight some of the biggest differences using an example dataset included in the dplyr package:

dplyr::starwars
#> # A tibble: 87 x 14
#>    name    height  mass hair_color  skin_color eye_color birth_year sex   gender
#>    <chr>    <int> <dbl> <chr>       <chr>      <chr>          <dbl> <chr> <chr> 
#>  1 Luke S~    172    77 blond       fair       blue            19   male  mascu~
#>  2 C-3PO      167    75 <NA>        gold       yellow         112   none  mascu~
#>  3 R2-D2       96    32 <NA>        white, bl~ red             33   none  mascu~
#>  4 Darth ~    202   136 none        white      yellow          41.9 male  mascu~
#>  5 Leia O~    150    49 brown       light      brown           19   fema~ femin~
#>  6 Owen L~    178   120 brown, grey light      blue            52   male  mascu~
#>  7 Beru W~    165    75 brown       light      blue            47   fema~ femin~
#>  8 R5-D4       97    32 <NA>        white, red red             NA   none  mascu~
#>  9 Biggs ~    183    84 black       light      brown           24   male  mascu~
#> 10 Obi-Wa~    182    77 auburn, wh~ fair       blue-gray       57   male  mascu~
#> # ... with 77 more rows, and 5 more variables: homeworld <chr>, species <chr>,
#> #   films <list>, vehicles <list>, starships <list>
…
